<svg width="24" height="24" viewBox="0 0 24 24" fill="none" xmlns="http://www.w3.org/2000/svg">
<path d="M20.1713 10.3679H19.5V10.3333H12V13.6666H16.7096C16.0225 15.607 14.1763 17 12 17C9.23877 17 7.00002 14.7612 7.00002 12C7.00002 9.23871 9.23877 6.99996 12 6.99996C13.2746 6.99996 14.4342 7.48079 15.3171 8.26621L17.6742 5.90913C16.1859 4.52204 14.195 3.66663 12 3.66663C7.39794 3.66663 3.66669 7.39788 3.66669 12C3.66669 16.602 7.39794 20.3333 12 20.3333C16.6021 20.3333 20.3334 16.602 20.3334 12C20.3334 11.4412 20.2759 10.8958 20.1713 10.3679Z" fill="#FFC107"/>
<path d="M4.6275 8.12121L7.36542 10.1291C8.10625 8.29496 9.90042 6.99996 12 6.99996C13.2746 6.99996 14.4342 7.48079 15.3171 8.26621L17.6742 5.90913C16.1858 4.52204 14.195 3.66663 12 3.66663C8.79917 3.66663 6.02334 5.47371 4.6275 8.12121Z" fill="#FF3D00"/>
<path d="M12 20.3334C14.1525 20.3334 16.1083 19.5096 17.5871 18.17L15.0079 15.9875C14.1431 16.6452 13.0864 17.0009 12 17C9.83249 17 7.99207 15.618 7.29874 13.6892L4.58124 15.783C5.9604 18.4817 8.76124 20.3334 12 20.3334Z" fill="#4CAF50"/>
<path d="M20.1713 10.368H19.5V10.3334H12V13.6667H16.7096C16.3809 14.5902 15.7889 15.3972 15.0067 15.988L15.0079 15.9871L17.5871 18.1696C17.4046 18.3355 20.3333 16.1667 20.3333 12C20.3333 11.4413 20.2758 10.8959 20.1713 10.368Z" fill="#1976D2"/>
</svg>
