<svg width="24" height="24" viewBox="0 0 24 24" fill="none" xmlns="http://www.w3.org/2000/svg">
<path d="M12.781 2.37505C12.4 1.90005 11.6 1.90005 11.219 2.37505L3.219 12.375C3.10164 12.5223 3.02817 12.6996 3.00703 12.8867C2.98589 13.0737 3.01794 13.263 3.09949 13.4327C3.18105 13.6024 3.3088 13.7456 3.46809 13.846C3.62737 13.9463 3.81173 13.9997 4 14H8V21C8 21.2653 8.10536 21.5196 8.29289 21.7072C8.48043 21.8947 8.73478 22 9 22H15C15.2652 22 15.5196 21.8947 15.7071 21.7072C15.8946 21.5196 16 21.2653 16 21V14H20C20.1883 13.9997 20.3726 13.9463 20.5319 13.846C20.6912 13.7456 20.819 13.6024 20.9005 13.4327C20.9821 13.263 21.0141 13.0737 20.993 12.8867C20.9718 12.6996 20.8984 12.5223 20.781 12.375L12.781 2.37505ZM15 12H14V20H10V12H6.081L12 4.60105L17.919 12H15Z" fill="#626C69"/>
</svg>
