<svg width="24" height="24" viewBox="0 0 24 24" fill="none" xmlns="http://www.w3.org/2000/svg">
<path d="M19 20.001C19 11.729 12.271 5 4 5V7C11.168 7 17 12.832 17 20.001H19Z" fill="#93A29D"/>
<path d="M12 20.001H14C14 14.486 9.514 10 4 10V12C8.411 12 12 15.589 12 20.001Z" fill="#93A29D"/>
<path d="M6 20C7.10457 20 8 19.1046 8 18C8 16.8954 7.10457 16 6 16C4.89543 16 4 16.8954 4 18C4 19.1046 4.89543 20 6 20Z" fill="#93A29D"/>
</svg>
